<svg id="_3.1.14" data-name="3.1.14" xmlns="http://www.w3.org/2000/svg" xmlns:xlink="http://www.w3.org/1999/xlink" width="880" height="598" viewBox="0 0 880 598">
  <defs>
    <clipPath id="clip-path">
      <rect x="-574.98" y="-113.33" width="1915.34" height="814" fill="none"/>
    </clipPath>
    <clipPath id="clip-path-2">
      <polygon points="174.5 414.08 174.3 426.84 139.04 426.84 139.04 420.14 142.24 420.14 142.24 414.08 174.5 414.08" fill="none" clip-rule="evenodd"/>
    </clipPath>
    <clipPath id="clip-path-3">
      <rect x="61.97" y="5.21" width="645.2" height="582.93" fill="none"/>
    </clipPath>
    <clipPath id="clip-path-4">
      <path d="M164,407.35a6.85,6.85,0,0,0-13.7,0c0,3.36,5,10,6.73,10S164,410.69,164,407.35Z" fill="none" clip-rule="evenodd"/>
    </clipPath>
    <clipPath id="clip-path-6">
      <path d="M163.85,407.35a6.66,6.66,0,0,0-13.32,0c0,3.85,5.4,9.82,6.54,9.82S163.85,411.2,163.85,407.35Zm-21.57-14.91H172.1v33H142.28Z" fill="none" clip-rule="evenodd"/>
    </clipPath>
    <clipPath id="clip-path-8">
      <circle cx="157.25" cy="406.77" r="3.38" fill="none"/>
    </clipPath>
    <clipPath id="clip-path-14">
      <path d="M142.28,392.44H172.1v33H142.28Z" fill="none" clip-rule="evenodd"/>
    </clipPath>
  </defs>
  <title>3-1-14</title>
  <g>
    <g style="isolation: isolate">
      <g clip-path="url(#clip-path)">
        <g clip-path="url(#clip-path-2)">
          <g clip-path="url(#clip-path-3)">
            <rect x="135.29" y="410.33" width="42.96" height="20.26" fill="#00665a"/>
          </g>
        </g>
        <g clip-path="url(#clip-path-4)">
          <g clip-path="url(#clip-path-3)">
            <rect x="146.78" y="396.94" width="20.82" height="23.97" fill="#fb9539"/>
          </g>
        </g>
        <g clip-path="url(#clip-path-6)">
          <g clip-path="url(#clip-path-3)">
            <path d="M163.85,407.35a6.66,6.66,0,0,0-13.32,0c0,3.85,5.4,9.82,6.54,9.82S163.85,411.2,163.85,407.35Z" fill="none" stroke="#fff" stroke-miterlimit="10" stroke-width="2"/>
          </g>
        </g>
        <g clip-path="url(#clip-path-8)">
          <g clip-path="url(#clip-path-3)">
            <rect x="150.12" y="399.64" width="14.25" height="14.25" fill="#fff"/>
          </g>
        </g>
      </g>
    </g>
    <polygon points="138.79 392.23 138.79 405.89 142.08 405.89 142.08 419.48 138.79 419.48 138.79 433.04 142.08 433.04 142.08 441.13 143.38 441.13 143.38 446.38 174.35 446.38 174.35 405.89 174.35 404.5 174.35 392.23 138.79 392.23" fill="#00665a"/>
  </g>
  <g>
    <g style="isolation: isolate">
      <g clip-path="url(#clip-path)">
        <g clip-path="url(#clip-path-2)">
          <g clip-path="url(#clip-path-3)">
            <rect x="135.29" y="410.33" width="42.96" height="20.26" fill="#00665a"/>
          </g>
        </g>
      </g>
    </g>
    <polygon points="142.08 395.75 142.08 391.11 142.08 386.49 142.08 381.87 142.08 379.13 174.35 379.13 174.35 391.11 174.35 391.58 174.35 395.75 142.08 395.75" fill="#00665a"/>
  </g>
</svg>
