<svg id="_3.1.31" data-name="3.1.31" xmlns="http://www.w3.org/2000/svg" xmlns:xlink="http://www.w3.org/1999/xlink" width="880" height="598" viewBox="0 0 880 598">
  <defs>
    <clipPath id="clip-path">
      <rect x="-574.98" y="-113.33" width="1915.34" height="814" fill="none"/>
    </clipPath>
    <clipPath id="clip-path-2">
      <path d="M142.28,392.44H172.1v33H142.28Z" fill="none" clip-rule="evenodd"/>
    </clipPath>
    <clipPath id="clip-path-3">
      <circle cx="157.25" cy="406.77" r="3.38" fill="none"/>
    </clipPath>
    <clipPath id="clip-path-4">
      <rect x="61.97" y="5.21" width="645.2" height="582.93" fill="none"/>
    </clipPath>
  </defs>
  <title>3-1-31</title>
  <g>
    <g style="isolation: isolate">
      <g clip-path="url(#clip-path)">
        <g clip-path="url(#clip-path-3)">
          <g clip-path="url(#clip-path-4)">
            <rect x="150.12" y="399.64" width="14.25" height="14.25" fill="#fff"/>
          </g>
        </g>
      </g>
    </g>
    <polygon points="162.35 405.89 162.35 404.5 162.35 399.23 138.79 399.23 138.79 405.89 142.08 405.89 142.08 414.08 162.35 414.08 162.35 405.89" fill="#00665a"/>
  </g>
</svg>
