<svg id="_3.1.34" data-name="3.1.34" xmlns="http://www.w3.org/2000/svg" xmlns:xlink="http://www.w3.org/1999/xlink" width="880" height="598" viewBox="0 0 880 598">
  <defs>
    <clipPath id="clip-path">
      <rect x="-250.88" y="-112.58" width="1035.32" height="916.03" fill="none"/>
    </clipPath>
    <clipPath id="clip-path-2">
      <rect x="-574.98" y="-113.33" width="1915.34" height="814" fill="none"/>
    </clipPath>
  </defs>
  <title>3-1-34</title>
  <rect x="142.16" y="412.67" width="23" height="15" fill="#00665a"/>
  <rect x="138.76" y="419.46" width="26.41" height="8.56" fill="#00665a"/>
</svg>
