<?xml version="1.0" encoding="utf-8"?>
<!-- Generator: Adobe Illustrator 22.1.0, SVG Export Plug-In . SVG Version: 6.00 Build 0)  -->
<svg version="1.1" id="_3.1.3" xmlns="http://www.w3.org/2000/svg" xmlns:xlink="http://www.w3.org/1999/xlink" x="0px" y="0px"
	 viewBox="0 0 880 598" style="enable-background:new 0 0 880 598;" xml:space="preserve">
<style type="text/css">
	.st0{clip-path:url(#SVGID_2_);enable-background:new    ;}
	.st1{clip-path:url(#SVGID_4_);}
	.st2{clip-path:url(#SVGID_6_);}
	.st3{clip-path:url(#SVGID_8_);fill:#00665A;}
	.st4{clip-path:url(#SVGID_10_);enable-background:new    ;}
	.st5{clip-path:url(#SVGID_12_);}
	.st6{clip-path:url(#SVGID_14_);}
	.st7{clip-path:url(#SVGID_16_);fill:#00665A;}
	.st8{fill:#FFFFFF;}
	.st9{fill:#008375;}
	.st10{font-family:'AcherusGrotesque-ExtraBold';}
	.st11{font-size:10.5832px;}
	.st12{font-size:4.9388px;}
</style>
<title>3-1-3</title>
<g>
	<defs>
		
			<rect id="SVGID_1_" x="397.3" y="307.8" transform="matrix(0.225 -0.9744 0.9744 0.225 -7.0624 647.1841)" width="12" height="40.5"/>
	</defs>
	<clipPath id="SVGID_2_">
		<use xlink:href="#SVGID_1_"  style="overflow:visible;"/>
	</clipPath>
	<g class="st0">
		<g>
			<defs>
				<rect id="SVGID_3_" x="377.1" y="312.9" width="52" height="31"/>
			</defs>
			<clipPath id="SVGID_4_">
				<use xlink:href="#SVGID_3_"  style="overflow:visible;"/>
			</clipPath>
			<g class="st1">
				<defs>
					
						<rect id="SVGID_5_" x="393.5" y="304" transform="matrix(0.225 -0.9744 0.9744 0.225 -7.0573 647.1807)" width="19.5" height="48"/>
				</defs>
				<clipPath id="SVGID_6_">
					<use xlink:href="#SVGID_5_"  style="overflow:visible;"/>
				</clipPath>
				<g class="st2">
					<defs>
						<rect id="SVGID_7_" x="382.1" y="316.9" width="43" height="22"/>
					</defs>
					<clipPath id="SVGID_8_">
						<use xlink:href="#SVGID_7_"  style="overflow:visible;"/>
					</clipPath>
					
						<rect x="388.5" y="299" transform="matrix(0.225 -0.9744 0.9744 0.225 -7.0572 647.181)" class="st3" width="29.5" height="58"/>
				</g>
			</g>
		</g>
	</g>
</g>
<g>
	<defs>
		<polygon id="SVGID_9_" points="336.3,372.7 278.1,372.7 278.1,457.2 283.3,457.2 283.1,496.5 335.1,496.7 335.1,457.2 
			338.1,457.2 		"/>
	</defs>
	<clipPath id="SVGID_10_">
		<use xlink:href="#SVGID_9_"  style="overflow:visible;"/>
	</clipPath>
	<g class="st4">
		<g>
			<defs>
				<rect id="SVGID_11_" x="274.1" y="368.9" width="68" height="132"/>
			</defs>
			<clipPath id="SVGID_12_">
				<use xlink:href="#SVGID_11_"  style="overflow:visible;"/>
			</clipPath>
			<g class="st5">
				<defs>
					<rect id="SVGID_13_" x="274.4" y="369" width="67.5" height="131.5"/>
				</defs>
				<clipPath id="SVGID_14_">
					<use xlink:href="#SVGID_13_"  style="overflow:visible;"/>
				</clipPath>
				<g class="st6">
					<defs>
						<rect id="SVGID_15_" x="278.1" y="371.9" width="61" height="125"/>
					</defs>
					<clipPath id="SVGID_16_">
						<use xlink:href="#SVGID_15_"  style="overflow:visible;"/>
					</clipPath>
					<rect x="269.4" y="364" class="st7" width="77.5" height="141.5"/>
				</g>
			</g>
		</g>
	</g>
</g>
<g>
	<circle class="st8" cx="309.5" cy="420.9" r="8.2"/>
	<text transform="matrix(1 0 0 1 305.3286 424.5547)" class="st9 st10 st11">N</text>
</g>
<g>
	
		<ellipse transform="matrix(0.7071 -0.7071 0.7071 0.7071 -122.5802 381.6996)" class="st8" cx="399.5" cy="338.8" rx="8.2" ry="8.2"/>
	<text transform="matrix(1 0 0 1 395.9927 342.4639)" class="st9 st10 st11">L</text>
</g>
<text transform="matrix(1 0 0 1 300.353 437.2051)"><tspan x="0" y="0" class="st8 st10 st12">Clínicas</tspan><tspan x="-8" y="5.2" class="st8 st10 st12">Odontológicas</tspan></text>
</svg>
