
<svg width="14px" height="14px" viewBox="131 698 14 14" version="1.1" xmlns="http://www.w3.org/2000/svg" xmlns:xlink="http://www.w3.org/1999/xlink">
    <!-- Generator: Sketch 42 (36781) - http://www.bohemiancoding.com/sketch -->
    <desc>Created with Sketch.</desc>
    <defs>
        <rect id="path-1" x="131" y="698" width="14" height="14" rx="7"></rect>
        <mask id="mask-2" maskContentUnits="userSpaceOnUse" maskUnits="objectBoundingBox" x="0" y="0" width="14" height="14" fill="white">
            <use xlink:href="#path-1"></use>
        </mask>
        <rect id="path-3" x="134" y="701" width="8" height="8" rx="4"></rect>
        <mask id="mask-4" maskContentUnits="userSpaceOnUse" maskUnits="objectBoundingBox" x="0" y="0" width="8" height="8" fill="white">
            <use xlink:href="#path-3"></use>
        </mask>
    </defs>
    <use id="radio-copy-18" stroke="#7BC142" mask="url(#mask-2)" stroke-width="2" fill="#7BC142" fill-rule="evenodd" xlink:href="#path-1"></use>
    <use id="radio-copy-18" stroke="#7BC142" mask="url(#mask-4)" stroke-width="2" fill="#FFFFFF" fill-rule="evenodd" xlink:href="#path-3"></use>
</svg>