<svg id="Calque_2" data-name="Calque 2" xmlns="http://www.w3.org/2000/svg" xmlns:xlink="http://www.w3.org/1999/xlink" width="880" height="598" viewBox="0 0 880 598">
  <defs>
    <clipPath id="clip-path">
      <rect x="59" y="4.23" width="647" height="584.56" fill="none"/>
    </clipPath>
    <clipPath id="clip-path-2">
      <rect x="-254.72" y="-113.89" width="1038.21" height="918.59" fill="none"/>
    </clipPath>
    <clipPath id="clip-path-3">
      <rect x="124.25" y="31.07" width="659.79" height="522.11" fill="none"/>
    </clipPath>
    <clipPath id="clip-path-4">
      <polygon points="299.76 137.97 299.76 151.06 302.3 151.06 302.3 179.75 301.12 179.77 301.12 181.57 302.55 181.57 302.55 192.85 301.12 192.85 301.12 194.92 284.24 194.92 284.24 137.97 299.76 137.97" fill="none" clip-rule="evenodd"/>
    </clipPath>
    <clipPath id="clip-path-5">
      <rect x="124.25" y="31.07" width="582.3" height="521.36" fill="none"/>
    </clipPath>
    <clipPath id="clip-path-6">
      <polygon points="410.03 227.38 419.88 227.35 419.9 220.79 421.16 220.76 421.09 199.73 338.5 199.73 338.5 216.03 332.98 216.03 332.98 221.01 339.25 221.01 339.25 222.18 344.41 222.18 344.41 221.01 345.26 221.01 345.26 220.79 410.03 220.79 410.03 227.38" fill="none" clip-rule="evenodd"/>
    </clipPath>
    <clipPath id="clip-path-8">
      <polygon points="236.38 73.64 274.09 73.44 274.09 89.24 265.29 89.24 265.29 101.28 262.88 101.28 262.88 110.66 237.73 110.66 237.73 110.32 232.31 110.32 232.31 113.49 207.38 113.53 207.37 110.27 201.18 110.27 201.18 113.56 153.13 114.24 153.13 74.58 201.78 74.58 201.78 86.4 204.37 86.4 204.37 98.03 231.54 98.03 231.54 85.61 236.38 85.61 236.38 73.64" fill="none" clip-rule="evenodd"/>
    </clipPath>
    <clipPath id="clip-path-10">
      <polygon points="346.75 180.06 337.77 180.06 337.77 197.14 431.66 197.14 431.66 180.06 404.87 180.06 404.87 166.73 376.56 166.73 376.56 167.7 368.45 167.7 368.41 164.48 362.36 165.4 356.28 164.47 356.28 167.04 346.79 167.13 346.75 180.06" fill="none" clip-rule="evenodd"/>
    </clipPath>
    <clipPath id="clip-path-12">
      <polygon points="519.22 175.76 464.14 175.78 463.94 207.93 489.48 207.93 489.48 211.03 519.22 211.12 519.22 175.76" fill="none" clip-rule="evenodd"/>
    </clipPath>
    <clipPath id="clip-path-14">
      <polygon points="465.24 218.82 466.13 236.93 463.09 237.08 464.27 261.21 486.16 260.14 486.48 263.04 495.24 262.61 495.1 259.71 495.58 259.69 496.49 260.51 503.22 260.18 504.05 259.27 514.9 258.74 514.78 256.32 518.51 256.14 518.36 253.15 522.99 252.84 522.68 243.98 518.75 244.17 518.39 236.88 514.27 237.08 513.44 220.12 506.61 220.45 506.52 218.75 500.05 219.07 500.13 220.77 486.98 221.34 486.92 219.52 484.33 219.57 484.25 217.89 465.24 218.82" fill="none" clip-rule="evenodd"/>
    </clipPath>
    <clipPath id="clip-path-16">
      <polygon points="423.06 238.33 456.17 238.38 456.17 201.27 423.08 201.37 423.06 238.33" fill="none" clip-rule="evenodd"/>
    </clipPath>
    <clipPath id="clip-path-18">
      <polygon points="347.14 270.21 347.14 297.63 432.91 296.13 432.91 289.36 518.67 287.85 517.92 272.05 432.91 273.56 432.91 269.04 347.14 270.21" fill="none" clip-rule="evenodd"/>
    </clipPath>
    <clipPath id="clip-path-20">
      <rect x="373.47" y="298.48" width="42.13" height="12.7" fill="none"/>
    </clipPath>
    <clipPath id="clip-path-22">
      <polygon points="491.59 325.45 491.59 321.71 490.83 321.71 490.83 303.65 428.39 305.16 428.39 326.22 491.59 325.45" fill="none" clip-rule="evenodd"/>
    </clipPath>
    <clipPath id="clip-path-24">
      <polygon points="538.98 387.91 537.48 335.25 501.92 336.75 502.87 375.87 466.76 377.38 466.76 373.24 420.87 373.24 420.87 365.34 336.5 367.52 336.5 387.91 538.98 387.91" fill="none" clip-rule="evenodd"/>
    </clipPath>
    <clipPath id="clip-path-26">
      <polygon points="483.31 341.27 474.28 373.62 333.6 344.28 333.6 365.34 316.23 365.34 316.23 321.71 320.06 320.95 320.06 314.18 322.31 314.18 322.31 309.67 325.32 309.67 325.32 305.16 333.6 305.16 483.31 341.27" fill="none" clip-rule="evenodd"/>
    </clipPath>
    <clipPath id="clip-path-28">
      <polygon points="334 372.86 275.67 372.86 275.67 457.58 280.88 457.58 280.68 497 332.86 497.21 332.86 457.58 335.86 457.58 334 372.86" fill="none" clip-rule="evenodd"/>
    </clipPath>
    <clipPath id="clip-path-30">
      <polygon points="209.1 332.99 166.68 332.99 166.68 329.98 124.25 328.59 124.25 378.68 139.42 378.67 139.32 392.44 136 392.41 136.03 405.99 139.32 405.99 139.42 419.64 136 419.64 136.03 433.22 139.32 433.22 139.31 441.36 140.81 441.34 140.74 446.56 171.7 446.56 171.7 362.33 210.22 362.33 209.1 332.99" fill="none" clip-rule="evenodd"/>
    </clipPath>
    <clipPath id="clip-path-32">
      <polygon points="259.87 372.87 213.23 372.87 213.23 369.1 202.69 369.1 202.69 458.63 268.2 457.88 268.2 429.29 247.39 429.29 247.39 420.17 238.81 420.17 238.81 398.44 259.87 398.44 259.87 372.87" fill="none" clip-rule="evenodd"/>
    </clipPath>
    <clipPath id="clip-path-34">
      <rect x="279.88" y="498.5" width="52.02" height="24.31" fill="none"/>
    </clipPath>
    <clipPath id="clip-path-36">
      <rect x="203.14" y="509.29" width="51.63" height="13.96" fill="none"/>
    </clipPath>
    <clipPath id="clip-path-38">
      <rect x="203.14" y="538.73" width="51.63" height="13.96" fill="none"/>
    </clipPath>
    <clipPath id="clip-path-40">
      <rect x="203.14" y="524.01" width="51.63" height="13.97" fill="none"/>
    </clipPath>
    <clipPath id="clip-path-42">
      <polygon points="581.95 289.29 584.06 332.55 596.26 334.66 594.15 291.56 581.95 289.29" fill="none" clip-rule="evenodd"/>
    </clipPath>
    <clipPath id="clip-path-44">
      <polygon points="607.36 294.43 609.48 337.69 597.76 335.41 595.65 292.31 607.36 294.43" fill="none" clip-rule="evenodd"/>
    </clipPath>
    <clipPath id="clip-path-46">
      <polygon points="620.41 297.29 622.53 340.56 610.98 338.44 608.87 295.18 620.41 297.29" fill="none" clip-rule="evenodd"/>
    </clipPath>
    <clipPath id="clip-path-48">
      <polygon points="633.36 300.27 635.74 343.54 624.03 341.31 621.92 298.05 633.36 300.27" fill="none" clip-rule="evenodd"/>
    </clipPath>
    <clipPath id="clip-path-50">
      <polygon points="647.65 303.23 649.71 346.45 638 344.29 635.61 301.02 647.65 303.23" fill="none" clip-rule="evenodd"/>
    </clipPath>
    <clipPath id="clip-path-52">
      <polygon points="660.91 306.06 663.35 349.32 651.97 347.2 649.91 303.98 660.91 306.06" fill="none" clip-rule="evenodd"/>
    </clipPath>
    <clipPath id="clip-path-54">
      <polygon points="652.58 391.05 650.47 347.96 627.04 343.56 629.06 386.48 652.58 391.05" fill="none" clip-rule="evenodd"/>
    </clipPath>
    <clipPath id="clip-path-56">
      <polygon points="646.52 411.06 648.15 454.32 636.43 452.21 634.81 408.95 646.52 411.06" fill="none" clip-rule="evenodd"/>
    </clipPath>
    <clipPath id="clip-path-58">
      <polygon points="598.38 379.1 596.26 336.17 584.06 334.05 586.18 376.82 598.38 379.1" fill="none" clip-rule="evenodd"/>
    </clipPath>
    <clipPath id="clip-path-60">
      <path d="M706.55,334l-.81-15.45s-.16-3.92-3.58-4.56l-39.36-7.32,1.11,19.68Z" fill="none" clip-rule="evenodd"/>
    </clipPath>
    <clipPath id="clip-path-62">
      <rect x="633.49" y="233.39" width="150.28" height="75.96" fill="none"/>
    </clipPath>
    <clipPath id="clip-path-64">
      <rect x="632.82" y="232.7" width="151.22" height="76.74" fill="none"/>
    </clipPath>
    <clipPath id="clip-path-65">
      <polygon points="783.78 309.35 772.55 259.42 633.49 233.39 638.05 282.35 783.78 309.35" fill="none" clip-rule="evenodd"/>
    </clipPath>
    <clipPath id="clip-path-66">
      <rect x="632.82" y="232.7" width="73.73" height="76.74" fill="none"/>
    </clipPath>
    <clipPath id="clip-path-67">
      <rect x="188.9" y="31.07" width="47.55" height="6.72" fill="none"/>
    </clipPath>
    <clipPath id="clip-path-69">
      <rect x="274.22" y="31.07" width="17.86" height="3.36" fill="none"/>
    </clipPath>
    <clipPath id="clip-path-71">
      <polygon points="229.58 94.5 229.58 82.81 228.21 82.81 228.21 62.16 205.31 62.16 205.31 84.41 207.86 84.41 207.86 94.5 229.58 94.5" fill="none" clip-rule="evenodd"/>
    </clipPath>
    <clipPath id="clip-path-73">
      <rect x="288.81" y="208.38" width="22.77" height="48.92" fill="none"/>
    </clipPath>
    <clipPath id="clip-path-76">
      <rect x="263.93" y="208.38" width="25.08" height="49.01" fill="none"/>
    </clipPath>
    <clipPath id="clip-path-79">
      <rect x="275.44" y="265.28" width="26.36" height="49.22" fill="none"/>
    </clipPath>
    <clipPath id="clip-path-82">
      <rect x="178.43" y="117.07" width="82.04" height="155.69" fill="none"/>
    </clipPath>
    <clipPath id="clip-path-84">
      <path d="M259.16,324v33.57l3.82,2.05,9.22-.08s26.87-27.83,28.88-30.27-.6-5.27-2.89-5.27h-39" fill="none" clip-rule="evenodd"/>
    </clipPath>
    <clipPath id="clip-path-86">
      <path d="M412.57,244.42s-4.18,2.43-6.84-2.83c-5.6,9.69-10.7,0-10.7,0a5.24,5.24,0,0,1-6.86,3.08,4.74,4.74,0,0,1-2.82,6.6s5.08,2.19,2.84,6.84c4.87-2.16,6,1.28,6.84,2.84.42-1.1,5.69-9.66,10.7,0,2.42-5.47,6.84-2.84,6.84-2.84a4.91,4.91,0,0,1,2.84-6.84,5.19,5.19,0,0,1-2.84-6.85" fill="none" clip-rule="evenodd"/>
    </clipPath>
    <clipPath id="clip-path-88">
      <path d="M371.19,244.42s-4.19,2.43-6.84-2.83c-5.6,9.69-10.7,0-10.7,0a5.24,5.24,0,0,1-6.86,3.08,4.74,4.74,0,0,1-2.82,6.6s5.08,2.19,2.84,6.84c4.88-2.16,6,1.28,6.84,2.84.42-1.1,5.7-9.66,10.7,0,2.42-5.47,6.84-2.84,6.84-2.84a4.91,4.91,0,0,1,2.84-6.84,5.19,5.19,0,0,1-2.84-6.85" fill="none" clip-rule="evenodd"/>
    </clipPath>
    <clipPath id="clip-path-90">
      <polygon points="269.46 403.51 269.48 404.98 271.66 407.45 271.71 412.33 263.08 420.24 259.53 420.26 259.55 421.89 256.99 421.91 256.99 421.63 254.26 419.21 251.04 422.16 248.89 420.25 248.89 416.79 243.15 416.79 243.12 413.79 243.2 404.48 246.45 401.49 251.86 401.45 255.13 402.92 268.68 402.82 269.46 403.51" fill="none" clip-rule="evenodd"/>
    </clipPath>
    <clipPath id="clip-path-92">
      <polygon points="304.76 113.92 299.98 124.38 305.56 128.63 302.34 133.28 283.63 133.16 280.41 142.2 280.46 195.2 272.64 195.2 272.64 136.24 282.8 106.26 304.76 113.92" fill="none" clip-rule="evenodd"/>
    </clipPath>
    <clipPath id="clip-path-94">
      <polygon points="456.03 242.34 456.03 254.62 443.61 263.39 428.33 263.39 428.36 243.54 456.03 242.34" fill="none" clip-rule="evenodd"/>
    </clipPath>
    <clipPath id="clip-path-96">
      <path d="M650.14,266.54a7.21,7.21,0,1,1,7.21-7.21,7.21,7.21,0,0,1-7.21,7.21" fill="none" clip-rule="evenodd"/>
    </clipPath>
    <clipPath id="clip-path-99">
      <path d="M289.45,128.45a7.21,7.21,0,1,1,7.21-7.21,7.21,7.21,0,0,1-7.21,7.21" fill="none" clip-rule="evenodd"/>
    </clipPath>
    <clipPath id="clip-path-102">
      <path d="M292.72,120.32l-.33,0v0l.07.24.25,0a1.85,1.85,0,1,1-.82.19,13,13,0,0,0,.65,1.55.2.2,0,1,0,.36.11.2.2,0,0,0-.19-.19c-.12-.28-.3-.8-.45-1.27-.06-.21-.28-1-.28-1l-.44-1.45h1.1a.32.32,0,0,1,0,.64.16.16,0,1,0,0,.33.65.65,0,0,0,0-1.29h-1.31a.16.16,0,0,0-.16.16.15.15,0,0,0,0,.06l.23.74h-3.25l-.28-.91a1.32,1.32,0,0,1,.58-.14.13.13,0,0,0,.11-.14.14.14,0,0,0-.08-.14h-.11l-.78,0c-.2,0-.5,0-.71,0h0a.17.17,0,0,0-.14.18.19.19,0,0,0,.08.16l.28.2a.44.44,0,0,0,.53.07l.22.71-1.65,3a.26.26,0,1,0,.22.4H288a1.85,1.85,0,1,1-1.3-1.9l.14-.25a2.14,2.14,0,1,0,1.44,2.16h.32a.41.41,0,0,0,.19.23l-.17.73h-.16a0,0,0,0,0,0,0v.2a0,0,0,0,0,0,0H289a0,0,0,0,0,0,0v-.2a0,0,0,0,0,0,0h-.14l.16-.68a.41.41,0,0,0,.41-.41.42.42,0,0,0,0-.16l2.21-2.46.09.3.12.39a2.14,2.14,0,1,0,.91-.2Zm-4.1,2h-2.21l.78-1.42a1.85,1.85,0,0,1,.79,1.15h.29a2.14,2.14,0,0,0-.95-1.4l.61-1.11.8,2.61A.4.4,0,0,0,288.62,122.34Zm.54-.27-.12,0-.76-2.5h3.24l0-.06Z" fill="none" clip-rule="evenodd"/>
    </clipPath>
    <clipPath id="clip-path-104">
      <path d="M286.62,125.11v-.51a0,0,0,0,0,0,0h-.2a0,0,0,0,0,0,0v.12l-.22,0a.1.1,0,0,0-.12.07.09.09,0,0,0,.07.12l.27.06v.19a0,0,0,0,0,0,0h.2a0,0,0,0,0,0,0" fill="none" clip-rule="evenodd"/>
    </clipPath>
    <clipPath id="clip-path-106">
      <path d="M163.37,467a7.21,7.21,0,1,1,7.21-7.21,7.21,7.21,0,0,1-7.21,7.21" fill="none" clip-rule="evenodd"/>
    </clipPath>
    <clipPath id="clip-path-109">
      <polygon points="310.83 40.98 306.08 64.84 260.61 57.58 263.86 39.58 269.88 40.46 271.17 35.07 310.83 40.98" fill="none" clip-rule="evenodd"/>
    </clipPath>
    <clipPath id="clip-path-111">
      <rect x="318.55" y="238.2" width="6.02" height="18.06" fill="none"/>
    </clipPath>
    <clipPath id="clip-path-113">
      <rect x="331.34" y="204.34" width="5.27" height="3.76" fill="none"/>
    </clipPath>
    <clipPath id="clip-path-115">
      <rect x="295.23" y="354.81" width="5.27" height="3.76" fill="none"/>
    </clipPath>
    <clipPath id="clip-path-117">
      <rect x="196.68" y="415.75" width="4.51" height="7.52" fill="none"/>
    </clipPath>
    <clipPath id="clip-path-119">
      <rect x="236.55" y="57.64" width="18.06" height="3.01" fill="none"/>
    </clipPath>
    <clipPath id="clip-path-121">
      <rect x="145.14" y="61.03" width="54.17" height="5.27" fill="none"/>
    </clipPath>
    <clipPath id="clip-path-123">
      <polygon points="506.63 336.75 506.63 311.93 526.19 311.17 526.19 303.65 534.47 303.65 535.97 335.25 506.63 336.75" fill="none" clip-rule="evenodd"/>
    </clipPath>
    <clipPath id="clip-path-125">
      <circle cx="149.28" cy="348.04" r="6.77" fill="none"/>
    </clipPath>
    <clipPath id="clip-path-128">
      <circle cx="305.76" cy="411.23" r="6.77" fill="none"/>
    </clipPath>
    <clipPath id="clip-path-131">
      <circle cx="400.56" cy="338.26" r="6.77" fill="none"/>
    </clipPath>
    <clipPath id="clip-path-134">
      <circle cx="460.74" cy="314.18" r="6.77" fill="none"/>
    </clipPath>
    <clipPath id="clip-path-137">
      <circle cx="394.54" cy="305.16" r="6.77" fill="none"/>
    </clipPath>
    <clipPath id="clip-path-140">
      <circle cx="411.09" cy="282.59" r="6.77" fill="none"/>
    </clipPath>
    <clipPath id="clip-path-143">
      <circle cx="491.59" cy="235.94" r="6.77" fill="none"/>
    </clipPath>
    <clipPath id="clip-path-146">
      <circle cx="491.59" cy="193.81" r="6.77" fill="none"/>
    </clipPath>
    <clipPath id="clip-path-149">
      <circle cx="439.68" cy="220.14" r="6.77" fill="none"/>
    </clipPath>
    <clipPath id="clip-path-152">
      <circle cx="381" cy="210.36" r="6.77" fill="none"/>
    </clipPath>
    <clipPath id="clip-path-155">
      <circle cx="381" cy="184.03" r="6.77" fill="none"/>
    </clipPath>
    <clipPath id="clip-path-158">
      <circle cx="293.73" cy="168.23" r="6.77" fill="none"/>
    </clipPath>
    <clipPath id="clip-path-161">
      <circle cx="219.25" cy="105.79" r="6.77" fill="none"/>
    </clipPath>
    <clipPath id="clip-path-164">
      <circle cx="286.2" cy="50.12" r="6.77" fill="none"/>
    </clipPath>
    <clipPath id="clip-path-167">
      <circle cx="407.33" cy="376.63" r="6.77" fill="none"/>
    </clipPath>
    <clipPath id="clip-path-170">
      <circle cx="229.03" cy="414.24" r="6.77" fill="none"/>
    </clipPath>
  </defs>
  <title>google-map-overlay</title>
  <g clip-path="url(#clip-path)">
    <g clip-path="url(#clip-path-2)">
      <g style="isolation: isolate">
        <g clip-path="url(#clip-path-3)">
          <g clip-path="url(#clip-path-4)">
            <g clip-path="url(#clip-path-5)">
              <rect x="280.48" y="134.21" width="25.84" height="64.47" fill="#7bc142" opacity="0.6"/>
            </g>
          </g>
          <g clip-path="url(#clip-path-6)">
            <g clip-path="url(#clip-path-5)">
              <rect x="329.22" y="195.97" width="95.71" height="35.17" fill="#7bc142" opacity="0.6"/>
            </g>
          </g>
          <g clip-path="url(#clip-path-8)">
            <g clip-path="url(#clip-path-5)">
              <rect x="149.36" y="69.68" width="128.49" height="48.33" fill="#7bc142" opacity="0.6"/>
            </g>
          </g>
          <g clip-path="url(#clip-path-10)">
            <g clip-path="url(#clip-path-5)">
              <rect x="334.01" y="160.71" width="101.41" height="40.19" fill="#7bc142" opacity="0.6"/>
            </g>
          </g>
          <g clip-path="url(#clip-path-12)">
            <g clip-path="url(#clip-path-5)">
              <rect x="460.18" y="171.99" width="62.81" height="42.89" fill="#7bc142" opacity="0.6"/>
            </g>
          </g>
          <g clip-path="url(#clip-path-14)">
            <g clip-path="url(#clip-path-5)">
              <rect x="459.33" y="214.12" width="67.42" height="52.67" fill="#7bc142" opacity="0.6"/>
            </g>
          </g>
          <g clip-path="url(#clip-path-16)">
            <g clip-path="url(#clip-path-5)">
              <rect x="419.3" y="197.51" width="40.62" height="44.62" fill="#7bc142" opacity="0.6"/>
            </g>
          </g>
          <g clip-path="url(#clip-path-18)">
            <g clip-path="url(#clip-path-5)">
              <rect x="343.38" y="265.28" width="179.05" height="36.11" fill="#7bc142" opacity="0.6"/>
            </g>
          </g>
          <g clip-path="url(#clip-path-20)">
            <g clip-path="url(#clip-path-5)">
              <rect x="369.71" y="294.72" width="49.65" height="20.22" fill="#7bc142" opacity="0.6"/>
            </g>
          </g>
          <g clip-path="url(#clip-path-22)">
            <g clip-path="url(#clip-path-5)">
              <rect x="424.63" y="299.89" width="70.72" height="30.09" fill="#7bc142" opacity="0.6"/>
            </g>
          </g>
          <g clip-path="url(#clip-path-24)">
            <g clip-path="url(#clip-path-5)">
              <rect x="332.73" y="331.49" width="210.01" height="60.19" fill="#7bc142" opacity="0.6"/>
            </g>
          </g>
          <g clip-path="url(#clip-path-26)">
            <g clip-path="url(#clip-path-5)">
              <rect x="312.47" y="301.39" width="174.6" height="75.98" fill="#7bc142" opacity="0.6"/>
            </g>
          </g>
          <g clip-path="url(#clip-path-28)">
            <g clip-path="url(#clip-path-5)">
              <rect x="271.91" y="369.1" width="67.71" height="131.87" fill="#7bc142" opacity="0.6"/>
            </g>
          </g>
          <g clip-path="url(#clip-path-30)">
            <g clip-path="url(#clip-path-5)">
              <rect x="120.49" y="324.83" width="93.49" height="125.49" fill="#7bc142" opacity="0.6"/>
            </g>
          </g>
          <g clip-path="url(#clip-path-32)">
            <g clip-path="url(#clip-path-5)">
              <rect id="seed" x="198.93" y="365.34" width="73.03" height="97.05" fill="#7bc142" opacity="0.6"/>
            </g>
          </g>
          <g clip-path="url(#clip-path-34)">
            <g clip-path="url(#clip-path-5)">
              <rect x="276.11" y="494.74" width="59.54" height="31.83" fill="#7bc142" opacity="0.6"/>
            </g>
          </g>
          <g clip-path="url(#clip-path-36)">
            <g clip-path="url(#clip-path-5)">
              <rect x="199.38" y="505.53" width="59.16" height="21.49" fill="#7bc142" opacity="0.6"/>
            </g>
          </g>
          <g clip-path="url(#clip-path-38)">
            <g clip-path="url(#clip-path-5)">
              <rect x="199.38" y="534.97" width="59.16" height="21.49" fill="#7bc142" opacity="0.6"/>
            </g>
          </g>
          <g clip-path="url(#clip-path-40)">
            <g clip-path="url(#clip-path-5)">
              <rect x="199.38" y="520.25" width="59.16" height="21.49" fill="#7bc142" opacity="0.6"/>
            </g>
          </g>
          <g clip-path="url(#clip-path-42)">
            <g clip-path="url(#clip-path-5)">
              <rect x="578.19" y="285.52" width="21.83" height="52.9" fill="#7bc142" opacity="0.6"/>
            </g>
          </g>
          <g clip-path="url(#clip-path-44)">
            <g clip-path="url(#clip-path-5)">
              <rect x="591.89" y="288.55" width="21.35" height="52.9" fill="#7bc142" opacity="0.6"/>
            </g>
          </g>
          <g clip-path="url(#clip-path-46)">
            <g clip-path="url(#clip-path-5)">
              <rect x="605.11" y="291.42" width="21.19" height="52.9" fill="#7bc142" opacity="0.6"/>
            </g>
          </g>
          <g clip-path="url(#clip-path-48)">
            <g clip-path="url(#clip-path-5)">
              <rect x="618.16" y="294.28" width="21.34" height="53.01" fill="#7bc142" opacity="0.6"/>
            </g>
          </g>
          <g clip-path="url(#clip-path-50)">
            <g clip-path="url(#clip-path-5)">
              <rect x="631.85" y="297.26" width="21.62" height="52.95" fill="#7bc142" opacity="0.6"/>
            </g>
          </g>
          <g clip-path="url(#clip-path-52)">
            <g clip-path="url(#clip-path-5)">
              <rect x="646.15" y="300.22" width="20.97" height="52.86" fill="#7bc142" opacity="0.6"/>
            </g>
          </g>
          <g clip-path="url(#clip-path-54)">
            <g clip-path="url(#clip-path-5)">
              <rect x="623.28" y="339.8" width="33.06" height="55.01" fill="#7bc142" opacity="0.6"/>
            </g>
          </g>
          <g clip-path="url(#clip-path-56)">
            <g clip-path="url(#clip-path-5)">
              <rect x="631.05" y="405.19" width="20.86" height="52.9" fill="#7bc142" opacity="0.6"/>
            </g>
          </g>
          <g clip-path="url(#clip-path-58)">
            <g clip-path="url(#clip-path-5)">
              <rect x="580.3" y="330.29" width="21.84" height="52.57" fill="#7bc142" opacity="0.6"/>
            </g>
          </g>
          <g clip-path="url(#clip-path-60)">
            <g clip-path="url(#clip-path-5)">
              <rect x="659.04" y="302.9" width="51.28" height="34.85" fill="#7bc142" opacity="0.6"/>
            </g>
          </g>
          <g clip-path="url(#clip-path-62)">
            <g clip-path="url(#clip-path-5)">
              <g style="isolation: isolate">
                <g clip-path="url(#clip-path-64)">
                  <g clip-path="url(#clip-path-65)">
                    <g clip-path="url(#clip-path-66)">
                      <rect x="629.73" y="229.63" width="157.81" height="83.48" fill="#b2b2b2" opacity="0.6"/>
                    </g>
                  </g>
                </g>
              </g>
            </g>
          </g>
          <g clip-path="url(#clip-path-67)">
            <g clip-path="url(#clip-path-5)">
              <rect x="185.14" y="27.31" width="55.07" height="14.24" fill="#fff"/>
            </g>
          </g>
          <g clip-path="url(#clip-path-69)">
            <g clip-path="url(#clip-path-5)">
              <rect x="270.46" y="27.31" width="25.38" height="10.88" fill="#fff" opacity="0.6"/>
            </g>
          </g>
          <g clip-path="url(#clip-path-71)">
            <g clip-path="url(#clip-path-5)">
              <rect x="201.55" y="58.39" width="31.79" height="39.87" fill="#b2b2b2" opacity="0.6"/>
            </g>
          </g>
          <g clip-path="url(#clip-path-73)">
            <g clip-path="url(#clip-path-5)">
              <rect x="285.05" y="204.62" width="30.29" height="56.44" fill="#7bc142" opacity="0.6"/>
            </g>
          </g>
          <g clip-path="url(#clip-path-5)">
            <rect x="288.81" y="208.38" width="22.77" height="48.92" fill="none" stroke="#006837" stroke-miterlimit="10" stroke-width="0.25" opacity="0.6"/>
          </g>
          <g clip-path="url(#clip-path-76)">
            <g clip-path="url(#clip-path-5)">
              <rect x="260.17" y="204.62" width="32.6" height="56.53" fill="#7bc142" opacity="0.6"/>
            </g>
          </g>
          <g clip-path="url(#clip-path-5)">
            <rect x="263.93" y="208.46" width="25.08" height="49.01" fill="none" stroke="#006837" stroke-miterlimit="10" stroke-width="0.25" opacity="0.6"/>
          </g>
          <g clip-path="url(#clip-path-79)">
            <g clip-path="url(#clip-path-5)">
              <rect x="271.68" y="261.52" width="33.88" height="56.74" fill="#7bc142" opacity="0.6"/>
            </g>
          </g>
          <g clip-path="url(#clip-path-5)">
            <rect x="275.44" y="265.28" width="26.36" height="49.22" fill="none" stroke="#006837" stroke-miterlimit="10" stroke-width="0.25" opacity="0.6"/>
            <line x1="311.58" y1="232.46" x2="263.73" y2="232.46" fill="none" stroke="#006837" stroke-linecap="round" stroke-linejoin="round" stroke-width="0.25" opacity="0.6"/>
            <path d="M300.39,237.55a5.18,5.18,0,1,1,5.18-5.18A5.18,5.18,0,0,1,300.39,237.55Z" fill="none" stroke="#006837" stroke-linecap="round" stroke-linejoin="round" stroke-width="0.25" opacity="0.6"/>
            <path d="M293.11,208.38a7.78,7.78,0,0,0,15.46,0" fill="none" stroke="#006837" stroke-linecap="round" stroke-linejoin="round" stroke-width="0.25" opacity="0.6"/>
            <path d="M308.57,256.71a7.78,7.78,0,0,0-15.46,0" fill="none" stroke="#006837" stroke-linecap="round" stroke-linejoin="round" stroke-width="0.25" opacity="0.6"/>
            <path d="M277.06,237.55a5.18,5.18,0,1,1,5.18-5.18A5.18,5.18,0,0,1,277.06,237.55Z" fill="none" stroke="#006837" stroke-linecap="round" stroke-linejoin="round" stroke-width="0.25" opacity="0.6"/>
            <path d="M269,208.38a7.78,7.78,0,0,0,15.46,0" fill="none" stroke="#006837" stroke-linecap="round" stroke-linejoin="round" stroke-width="0.25" opacity="0.6"/>
            <path d="M284.5,256.71a7.78,7.78,0,0,0-15.46,0" fill="none" stroke="#006837" stroke-linecap="round" stroke-linejoin="round" stroke-width="0.25" opacity="0.6"/>
            <path d="M288.35,295.2a5.18,5.18,0,1,1,5.18-5.18A5.18,5.18,0,0,1,288.35,295.2Z" fill="none" stroke="#006837" stroke-linecap="round" stroke-linejoin="round" stroke-width="0.25" opacity="0.6"/>
            <path d="M281.07,265.28a7.77,7.77,0,0,0,15.46,0" fill="none" stroke="#006837" stroke-linecap="round" stroke-linejoin="round" stroke-width="0.25" opacity="0.6"/>
            <path d="M296.53,314.36a7.77,7.77,0,0,0-15.46,0" fill="none" stroke="#006837" stroke-linecap="round" stroke-linejoin="round" stroke-width="0.25" opacity="0.6"/>
            <line x1="301.8" y1="289.36" x2="275.44" y2="289.36" fill="none" stroke="#006837" stroke-linecap="round" stroke-linejoin="round" stroke-width="0.25" opacity="0.6"/>
          </g>
          <g clip-path="url(#clip-path-82)">
            <g clip-path="url(#clip-path-5)">
              <rect x="174.67" y="113.31" width="89.56" height="163.21" fill="#7bc142" opacity="0.6"/>
            </g>
          </g>
          <g clip-path="url(#clip-path-84)">
            <g clip-path="url(#clip-path-5)">
              <rect x="255.4" y="320.2" width="50.17" height="43.14" fill="#b2b2b2" opacity="0.6"/>
            </g>
          </g>
          <g clip-path="url(#clip-path-86)">
            <g clip-path="url(#clip-path-5)">
              <rect x="381.58" y="237.83" width="37.58" height="26.88" fill="#b2b2b2" opacity="0.6"/>
            </g>
          </g>
          <g clip-path="url(#clip-path-88)">
            <g clip-path="url(#clip-path-5)">
              <rect x="340.21" y="237.83" width="37.58" height="26.88" fill="#b2b2b2" opacity="0.6"/>
            </g>
          </g>
          <g clip-path="url(#clip-path-90)">
            <g clip-path="url(#clip-path-5)">
              <rect x="239.36" y="397.69" width="36.11" height="28.23" fill="#b2b2b2" opacity="0.6"/>
            </g>
          </g>
          <g clip-path="url(#clip-path-92)">
            <g clip-path="url(#clip-path-5)">
              <rect x="268.87" y="102.5" width="40.45" height="96.46" fill="#b2b2b2" opacity="0.6"/>
            </g>
          </g>
          <g clip-path="url(#clip-path-94)">
            <g clip-path="url(#clip-path-5)">
              <rect x="424.57" y="238.58" width="35.22" height="28.57" fill="#b2b2b2" opacity="0.6"/>
            </g>
          </g>
          <g clip-path="url(#clip-path-96)">
            <g clip-path="url(#clip-path-5)">
              <rect x="639.16" y="248.36" width="21.94" height="21.94" fill="#fff"/>
            </g>
          </g>
          <g clip-path="url(#clip-path-5)">
            <circle cx="650.13" cy="259.33" r="7.21" fill="none" stroke="#bc0836" stroke-miterlimit="10" stroke-width="1.25"/>
            <text transform="translate(647.45 262.02)" font-size="8.59" fill="#1a171b" font-family="Humanist521BT-Bold, Humanst521 BT" font-weight="700">P</text>
          </g>
          <g clip-path="url(#clip-path-99)">
            <g clip-path="url(#clip-path-5)">
              <rect x="278.48" y="110.27" width="21.94" height="21.94" fill="#fff"/>
            </g>
          </g>
          <g clip-path="url(#clip-path-5)">
            <circle cx="289.45" cy="121.24" r="7.21" fill="none" stroke="#bc0836" stroke-miterlimit="10" stroke-width="1.25"/>
          </g>
          <g clip-path="url(#clip-path-102)">
            <g clip-path="url(#clip-path-5)">
              <rect x="280.28" y="114.12" width="18.34" height="14.24" fill="#000100"/>
            </g>
          </g>
          <g clip-path="url(#clip-path-104)">
            <g clip-path="url(#clip-path-5)">
              <rect x="282.24" y="120.8" width="8.14" height="8.1" fill="#000100"/>
            </g>
          </g>
          <g clip-path="url(#clip-path-106)">
            <g clip-path="url(#clip-path-5)">
              <rect x="152.39" y="448.84" width="21.94" height="21.94" fill="#fff"/>
            </g>
          </g>
          <g clip-path="url(#clip-path-5)">
            <circle cx="163.36" cy="459.81" r="7.21" fill="none" stroke="#bc0836" stroke-miterlimit="10" stroke-width="1.25"/>
            <text transform="translate(161.62 463.04)" font-size="8.59" fill="#1a171b" font-family="Humanist521BT-Bold, Humanst521 BT" font-weight="700">P</text>
          </g>
          <g clip-path="url(#clip-path-109)">
            <g clip-path="url(#clip-path-5)">
              <rect x="256.84" y="31.31" width="57.75" height="37.3" fill="#7bc142" opacity="0.6"/>
            </g>
          </g>
          <g clip-path="url(#clip-path-111)">
            <g clip-path="url(#clip-path-5)">
              <rect x="318.55" y="238.2" width="6.02" height="18.06" fill="none" stroke="#4a4a4a" stroke-miterlimit="10" stroke-width="2"/>
            </g>
          </g>
          <g clip-path="url(#clip-path-113)">
            <g clip-path="url(#clip-path-5)">
              <rect x="331.34" y="204.34" width="5.27" height="3.76" fill="none" stroke="#4a4a4a" stroke-miterlimit="10" stroke-width="2"/>
            </g>
          </g>
          <g clip-path="url(#clip-path-115)">
            <g clip-path="url(#clip-path-5)">
              <rect x="295.23" y="354.81" width="5.27" height="3.76" fill="none" stroke="#4a4a4a" stroke-miterlimit="10" stroke-width="2"/>
            </g>
          </g>
          <g clip-path="url(#clip-path-117)">
            <g clip-path="url(#clip-path-5)">
              <rect x="196.68" y="415.75" width="4.51" height="7.52" fill="none" stroke="#4a4a4a" stroke-miterlimit="10" stroke-width="2"/>
            </g>
          </g>
          <g clip-path="url(#clip-path-119)">
            <g clip-path="url(#clip-path-5)">
              <rect x="232.79" y="53.88" width="25.58" height="10.53" fill="#ddd"/>
            </g>
          </g>
          <g clip-path="url(#clip-path-121)">
            <g clip-path="url(#clip-path-5)">
              <rect x="141.38" y="57.26" width="61.69" height="12.79" fill="#ddd"/>
            </g>
          </g>
          <g clip-path="url(#clip-path-123)">
            <g clip-path="url(#clip-path-5)">
              <rect x="502.87" y="299.89" width="36.86" height="40.63" fill="#7bc142" opacity="0.6"/>
            </g>
          </g>
          <g clip-path="url(#clip-path-125)">
            <g clip-path="url(#clip-path-5)">
              <rect x="138.75" y="337.51" width="21.07" height="21.07" fill="#fff"/>
            </g>
          </g>
          <g clip-path="url(#clip-path-5)">
            <circle cx="149.28" cy="348.04" r="6.77" fill="none" stroke="#979797" stroke-miterlimit="10"/>
            <text transform="translate(145.52 350.29)" font-size="7.52" fill="#5b5e60" font-family="AcherusGrotesque-Black, Acherus Grotesque">M</text>
          </g>
          <g clip-path="url(#clip-path-128)">
            <g clip-path="url(#clip-path-5)">
              <rect x="295.23" y="400.7" width="21.07" height="21.07" fill="#fff"/>
            </g>
          </g>
          <g clip-path="url(#clip-path-5)">
            <circle cx="305.76" cy="411.23" r="6.77" fill="none" stroke="#979797" stroke-miterlimit="10"/>
            <text transform="translate(303.51 413.49)" font-size="7.52" fill="#5b5e60" font-family="AcherusGrotesque-Black, Acherus Grotesque">L</text>
          </g>
          <g clip-path="url(#clip-path-131)">
            <g clip-path="url(#clip-path-5)">
              <rect x="390.02" y="327.73" width="21.07" height="21.07" fill="#fff"/>
            </g>
          </g>
          <g clip-path="url(#clip-path-5)">
            <circle cx="400.56" cy="338.26" r="6.77" fill="none" stroke="#979797" stroke-miterlimit="10"/>
            <text transform="translate(398.3 340.51)" font-size="7.52" fill="#5b5e60" font-family="AcherusGrotesque-Black, Acherus Grotesque">B</text>
          </g>
          <g clip-path="url(#clip-path-134)">
            <g clip-path="url(#clip-path-5)">
              <rect x="450.21" y="303.65" width="21.07" height="21.07" fill="#fff"/>
            </g>
          </g>
          <g clip-path="url(#clip-path-5)">
            <circle cx="460.74" cy="314.18" r="6.77" fill="none" stroke="#979797" stroke-miterlimit="10"/>
            <text transform="translate(459.24 317.19)" font-size="7.52" fill="#5b5e60" font-family="AcherusGrotesque-Black, Acherus Grotesque">J</text>
          </g>
          <g clip-path="url(#clip-path-137)">
            <g clip-path="url(#clip-path-5)">
              <rect x="384" y="294.62" width="21.07" height="21.07" fill="#fff"/>
            </g>
          </g>
          <g clip-path="url(#clip-path-5)">
            <circle cx="394.54" cy="305.16" r="6.77" fill="none" stroke="#979797" stroke-miterlimit="10"/>
            <text transform="translate(392.28 308.17)" font-size="7.52" fill="#5b5e60" font-family="AcherusGrotesque-Black, Acherus Grotesque">K</text>
          </g>
          <g clip-path="url(#clip-path-140)">
            <g clip-path="url(#clip-path-5)">
              <rect x="400.56" y="272.05" width="21.07" height="21.07" fill="#fff"/>
            </g>
          </g>
          <g clip-path="url(#clip-path-5)">
            <circle cx="411.09" cy="282.59" r="6.77" fill="none" stroke="#979797" stroke-miterlimit="10"/>
            <text transform="translate(408.08 284.84)" font-size="7.52" fill="#5b5e60" font-family="AcherusGrotesque-Black, Acherus Grotesque">A</text>
          </g>
          <g clip-path="url(#clip-path-143)">
            <g clip-path="url(#clip-path-5)">
              <rect x="481.05" y="225.41" width="21.07" height="21.07" fill="#fff"/>
            </g>
          </g>
          <g clip-path="url(#clip-path-5)">
            <circle cx="491.59" cy="235.94" r="6.77" fill="none" stroke="#979797" stroke-miterlimit="10"/>
            <text transform="translate(488.58 238.2)" font-size="7.52" fill="#5b5e60" font-family="AcherusGrotesque-Black, Acherus Grotesque">H</text>
          </g>
          <g clip-path="url(#clip-path-146)">
            <g clip-path="url(#clip-path-5)">
              <rect x="481.05" y="183.28" width="21.07" height="21.07" fill="#fff"/>
            </g>
          </g>
          <g clip-path="url(#clip-path-5)">
            <circle cx="491.59" cy="193.81" r="6.77" fill="none" stroke="#979797" stroke-miterlimit="10"/>
            <text transform="translate(488.58 196.07)" font-size="7.52" fill="#5b5e60" font-family="AcherusGrotesque-Black, Acherus Grotesque">C</text>
          </g>
          <g clip-path="url(#clip-path-149)">
            <g clip-path="url(#clip-path-5)">
              <rect x="429.14" y="209.61" width="21.07" height="21.07" fill="#fff"/>
            </g>
          </g>
          <g clip-path="url(#clip-path-5)">
            <circle cx="439.68" cy="220.14" r="6.77" fill="none" stroke="#979797" stroke-miterlimit="10"/>
            <text transform="translate(436.67 222.4)" font-size="7.52" fill="#5b5e60" font-family="AcherusGrotesque-Black, Acherus Grotesque">C</text>
          </g>
          <g clip-path="url(#clip-path-152)">
            <g clip-path="url(#clip-path-5)">
              <rect x="370.46" y="199.83" width="21.07" height="21.07" fill="#fff"/>
            </g>
          </g>
          <g clip-path="url(#clip-path-5)">
            <circle cx="381" cy="210.36" r="6.77" fill="none" stroke="#979797" stroke-miterlimit="10"/>
            <text transform="translate(378.74 212.62)" font-size="7.52" fill="#5b5e60" font-family="AcherusGrotesque-Black, Acherus Grotesque">E</text>
          </g>
          <g clip-path="url(#clip-path-155)">
            <g clip-path="url(#clip-path-5)">
              <rect x="370.46" y="173.5" width="21.07" height="21.07" fill="#fff"/>
            </g>
          </g>
          <g clip-path="url(#clip-path-5)">
            <circle cx="381" cy="184.03" r="6.77" fill="none" stroke="#979797" stroke-miterlimit="10"/>
            <text transform="translate(377.99 187.04)" font-size="7.52" fill="#5b5e60" font-family="AcherusGrotesque-Black, Acherus Grotesque">N</text>
          </g>
          <g clip-path="url(#clip-path-158)">
            <g clip-path="url(#clip-path-5)">
              <rect x="283.19" y="157.7" width="21.07" height="21.07" fill="#fff"/>
            </g>
          </g>
          <g clip-path="url(#clip-path-5)">
            <circle cx="293.73" cy="168.23" r="6.77" fill="none" stroke="#979797" stroke-miterlimit="10"/>
            <text transform="translate(290.72 171.24)" font-size="7.52" fill="#5b5e60" font-family="AcherusGrotesque-Black, Acherus Grotesque">O</text>
          </g>
          <g clip-path="url(#clip-path-161)">
            <g clip-path="url(#clip-path-5)">
              <rect x="208.71" y="95.26" width="21.07" height="21.07" fill="#fff"/>
            </g>
          </g>
          <g clip-path="url(#clip-path-5)">
            <circle cx="219.25" cy="105.79" r="6.77" fill="none" stroke="#979797" stroke-miterlimit="10"/>
            <text transform="translate(216.99 108.8)" font-size="7.52" fill="#5b5e60" font-family="AcherusGrotesque-Black, Acherus Grotesque">F</text>
          </g>
          <g clip-path="url(#clip-path-164)">
            <g clip-path="url(#clip-path-5)">
              <rect x="275.67" y="39.58" width="21.07" height="21.07" fill="#fff"/>
            </g>
          </g>
          <g clip-path="url(#clip-path-5)">
            <circle cx="286.2" cy="50.12" r="6.77" fill="none" stroke="#979797" stroke-miterlimit="10"/>
            <text transform="translate(283.19 53.13)" font-size="7.52" fill="#5b5e60" font-family="AcherusGrotesque-Black, Acherus Grotesque">G</text>
          </g>
          <g clip-path="url(#clip-path-167)">
            <g clip-path="url(#clip-path-5)">
              <rect x="396.79" y="366.09" width="21.07" height="21.07" fill="#fff"/>
            </g>
          </g>
          <g clip-path="url(#clip-path-5)">
            <circle cx="407.33" cy="376.63" r="6.77" fill="none" stroke="#979797" stroke-miterlimit="10"/>
            <text transform="translate(405.82 379.64)" font-size="7.52" fill="#5b5e60" font-family="AcherusGrotesque-Black, Acherus Grotesque">I</text>
          </g>
          <g clip-path="url(#clip-path-170)">
            <g clip-path="url(#clip-path-5)">
              <rect x="218.49" y="403.71" width="21.07" height="21.07" fill="#fff"/>
            </g>
          </g>
          <g clip-path="url(#clip-path-5)">
            <circle cx="229.03" cy="414.24" r="6.77" fill="none" stroke="#979797" stroke-miterlimit="10"/>
            <text transform="translate(226.77 417.25)" font-size="7.52" fill="#5b5e60" font-family="AcherusGrotesque-Black, Acherus Grotesque">D</text>
            <text transform="translate(289.96 513.55)" font-size="5.27" fill="#5b5e60" font-family="AcherusGrotesque-Black, Acherus Grotesque" letter-spacing="0em">Casa músic<tspan x="29.11" y="0" letter-spacing="0em">a</tspan></text>
            <text transform="translate(208.71 533.86)" font-size="5.27" fill="#5b5e60" font-family="AcherusGrotesque-Black, Acherus Grotesque"><tspan letter-spacing="0em">Casa movilida</tspan><tspan x="36.34" y="0">d</tspan></text>
            <text transform="translate(218.49 518.06)" font-size="5.27" fill="#5b5e60" font-family="AcherusGrotesque-Black, Acherus Grotesque"><tspan letter-spacing="0em">Bio</tspan><tspan x="8.48" y="0" letter-spacing="0em">é</tspan><tspan x="11.55" y="0" letter-spacing="0em">tic</tspan><tspan x="18.42" y="0">a</tspan></text>
            <text transform="translate(140.06 362.33)" font-size="5.27" fill="#5b5e60" font-family="AcherusGrotesque-Black, Acherus Grotesque"><tspan letter-spacing="0em">Ed</tspan><tspan x="6.76" y="0">i</tspan></text>
            <path d="M149.84,360.29v1.9c0,.11,0,.14-.14.14h-.52c-.11,0-.14,0-.14-.14v-1.9h-.26c-.11,0-.14,0-.14-.14v-.36c0-.11,0-.14.14-.14H149v-.15a1,1,0,0,1,1.08-1.18,1,1,0,0,1,.52.14c.08.05.09.08.07.18l-.06.37c0,.14,0,.15-.18.08a.62.62,0,0,0-.26-.05c-.23,0-.37.15-.37.48v.13h1.82c.11,0,.14,0,.14.14v2.4c0,.11,0,.14-.14.14h-.52c-.11,0-.14,0-.14-.14v-1.9Zm1.55-1.91a.47.47,0,0,1,.47.47.46.46,0,0,1-.47.46.45.45,0,0,1-.46-.46A.46.46,0,0,1,151.4,358.38Z" fill="#5b5e60"/>
            <text transform="translate(152.27 362.33)" font-size="5.27" fill="#5b5e60" font-family="AcherusGrotesque-Black, Acherus Grotesque" letter-spacing="0em">ci<tspan x="4.5" y="0" letter-spacing="0em">o</tspan></text>
            <text transform="translate(134.72 367.6)" font-size="5.27" fill="#5b5e60" font-family="AcherusGrotesque-Black, Acherus Grotesque" letter-spacing="-0.02em">F<tspan x="3.19" y="0" letter-spacing="0em">undado</tspan><tspan x="22.57" y="0" letter-spacing="0em">r</tspan><tspan x="24.79" y="0" letter-spacing="0em">e</tspan><tspan x="27.88" y="0" letter-spacing="0em">s</tspan></text>
            <text transform="translate(295.94 427.79)" font-size="5.27" fill="#5b5e60" font-family="AcherusGrotesque-Black, Acherus Grotesque"><tspan letter-spacing="0em">Clínica</tspan><tspan x="17.66" y="0">s</tspan></text>
            <text transform="translate(287.08 433.05)" font-size="5.27" fill="#5b5e60" font-family="AcherusGrotesque-Black, Acherus Grotesque"><tspan letter-spacing="0em">Odontológica</tspan><tspan x="35.35" y="0">s</tspan></text>
            <text transform="translate(218.49 547.41)" font-size="5.27" fill="#5b5e60" font-family="AcherusGrotesque-Black, Acherus Grotesque"><tspan letter-spacing="0em">Bio</tspan><tspan x="8.48" y="0" letter-spacing="0em">é</tspan><tspan x="11.55" y="0" letter-spacing="0em">tic</tspan><tspan x="18.42" y="0">a</tspan></text>
            <text transform="translate(209.32 190.05)" font-size="5.27" fill="#5b5e60" font-family="AcherusGrotesque-Black, Acherus Grotesque"><tspan letter-spacing="0em">Hospita</tspan><tspan x="20.46" y="0">l</tspan></text>
            <text transform="translate(203.38 196.07)" font-size="5.27" fill="#5b5e60" font-family="AcherusGrotesque-Black, Acherus Grotesque" letter-spacing="0em">Uni<tspan x="8.73" y="0" letter-spacing="-0.01em">v</tspan><tspan x="11.54" y="0">ersitari</tspan><tspan x="30.73" y="0" letter-spacing="0em">o</tspan></text>
            <text transform="translate(507.28 357.06)" font-size="5.27" fill="#5b5e60" font-family="AcherusGrotesque-Black, Acherus Grotesque"><tspan letter-spacing="0em">Auditori</tspan><tspan x="21.8" y="0">o</tspan></text>
            <text transform="translate(508.32 363.08)" font-size="5.27" fill="#5b5e60" font-family="AcherusGrotesque-Black, Acherus Grotesque"><tspan letter-spacing="0em">P</tspan><tspan x="3.26" y="0" letter-spacing="0em">rinci</tspan><tspan x="14.9" y="0" letter-spacing="0em">p</tspan><tspan x="18.26" y="0" letter-spacing="0em">a</tspan><tspan x="21.33" y="0">l</tspan></text>
            <text transform="translate(480.31 249.48)" font-size="5.27" fill="#5b5e60" font-family="AcherusGrotesque-Black, Acherus Grotesque"><tspan letter-spacing="0em">L</tspan><tspan x="3" y="0" letter-spacing="0em">a Cue</tspan><tspan x="17.39" y="0" letter-spacing="-0.01em">v</tspan><tspan x="20.21" y="0">a</tspan></text>
            <text transform="translate(288.6 181.02)" font-size="5.27" fill="#5b5e60" font-family="AcherusGrotesque-Black, Acherus Grotesque"><tspan letter-spacing="0em">CA</tspan><tspan x="7.7" y="0">F</tspan></text>
            <text transform="translate(628.28 327.97) rotate(-92)" font-size="4.51" fill="#5b5e60" font-family="AcherusGrotesque-Black, Acherus Grotesque" letter-spacing="0em">Cas<tspan x="8.15" y="0" letter-spacing="0em">a</tspan></text>
            <text transform="translate(632.14 330.66) rotate(-92)" font-size="4.51" fill="#5b5e60" font-family="AcherusGrotesque-Black, Acherus Grotesque"><tspan letter-spacing="0em">Image</tspan><tspan x="13.72" y="0">n</tspan></text>
            <text transform="translate(642.83 337.45) rotate(-92)" font-size="4.51" fill="#5b5e60" font-family="AcherusGrotesque-Black, Acherus Grotesque"><tspan letter-spacing="0em">Co</tspan><tspan x="5.95" y="0" letter-spacing="0em">m</tspan><tspan x="10.05" y="0" letter-spacing="0em">edo</tspan><tspan x="18.35" y="0" letter-spacing="0em">r</tspan><tspan x="20.26" y="0" letter-spacing="0em">e</tspan><tspan x="22.91" y="0">s</tspan></text>
            <text transform="translate(646.78 342.7) rotate(-92)" font-size="4.51" fill="#5b5e60" font-family="AcherusGrotesque-Black, Acherus Grotesque"><tspan letter-spacing="0em">A</tspan><tspan x="3.39" y="0" letter-spacing="0em">dminist</tspan><tspan x="20.42" y="0" letter-spacing="-0.01em">r</tspan><tspan x="22.31" y="0" letter-spacing="0em">ati</tspan><tspan x="28.45" y="0" letter-spacing="0em">v</tspan><tspan x="30.91" y="0" letter-spacing="0em">o</tspan><tspan x="33.66" y="0">s</tspan></text>
            <text transform="translate(658.34 341.9) rotate(-92)" font-size="4.51" fill="#5b5e60" font-family="AcherusGrotesque-Black, Acherus Grotesque"><tspan letter-spacing="0em">Humanidade</tspan><tspan x="28.16" y="0">s</tspan></text>
            <text transform="translate(671.12 317.51) rotate(10)" font-size="4.51" fill="#5b5e60" font-family="AcherusGrotesque-Black, Acherus Grotesque"><tspan letter-spacing="0em">Instituo d</tspan><tspan x="21.5" y="0">e</tspan></text>
            <text transform="translate(666.81 320.57) rotate(10)" font-size="4.51" fill="#5b5e60" font-family="AcherusGrotesque-Black, Acherus Grotesque"><tspan letter-spacing="0em">Neu</tspan><tspan x="8.87" y="0" letter-spacing="0em">r</tspan><tspan x="10.78" y="0" letter-spacing="0em">ociencia</tspan><tspan x="29.25" y="0">s</tspan></text>
            <text transform="translate(616.51 332.58) rotate(-92)" font-size="4.51" fill="#5b5e60" font-family="AcherusGrotesque-Black, Acherus Grotesque"><tspan letter-spacing="0em">Consultori</tspan><tspan x="23.26" y="0">o</tspan></text>
            <text transform="translate(620.13 328.27) rotate(-92)" font-size="4.51" fill="#5b5e60" font-family="AcherusGrotesque-Black, Acherus Grotesque"><tspan letter-spacing="0em">Jurídic</tspan><tspan x="14.9" y="0">o</tspan></text>
            <text transform="translate(603.98 323.5) rotate(-92)" font-size="4.51" fill="#5b5e60" font-family="AcherusGrotesque-Black, Acherus Grotesque"><tspan letter-spacing="0em">Almacé</tspan><tspan x="16.56" y="0">n</tspan></text>
            <text transform="translate(589.68 332.21) rotate(-92)" font-size="4.51" fill="#5b5e60" font-family="AcherusGrotesque-Black, Acherus Grotesque"><tspan letter-spacing="0em">S</tspan><tspan x="2.88" y="0" letter-spacing="0em">eguridad y Salu</tspan><tspan x="37.41" y="0">d</tspan></text>
            <text transform="translate(593.24 326.33) rotate(-92)" font-size="4.51" fill="#5b5e60" font-family="AcherusGrotesque-Black, Acherus Grotesque" letter-spacing="0em">en el <tspan x="11.69" y="0" letter-spacing="-0.06em">T</tspan><tspan x="14.28" y="0" letter-spacing="-0.01em">r</tspan><tspan x="16.17" y="0" letter-spacing="0em">abaj</tspan><tspan x="26.07" y="0" letter-spacing="0em">o</tspan></text>
            <text transform="translate(591.81 373.02) rotate(-92)" font-size="4.51" fill="#5b5e60" font-family="AcherusGrotesque-Black, Acherus Grotesque" letter-spacing="0em">Instituto Salu<tspan x="30.25" y="0" letter-spacing="0em">d</tspan></text>
            <text transform="translate(595.44 369.1) rotate(-92)" font-size="4.51" fill="#5b5e60" font-family="AcherusGrotesque-Black, Acherus Grotesque"><tspan letter-spacing="0em">y Ambient</tspan><tspan x="22.94" y="0">e</tspan></text>
            <text transform="translate(639.43 378.59) rotate(-92)" font-size="4.51" fill="#5b5e60" font-family="AcherusGrotesque-Black, Acherus Grotesque"><tspan letter-spacing="0em">Cent</tspan><tspan x="10.58" y="0" letter-spacing="0em">r</tspan><tspan x="12.49" y="0" letter-spacing="0em">o d</tspan><tspan x="19.29" y="0">e</tspan></text>
            <text transform="translate(643.86 376.11) rotate(-92)" font-size="4.51" fill="#5b5e60" font-family="AcherusGrotesque-Black, Acherus Grotesque"><tspan letter-spacing="0em">lengua</tspan><tspan x="14.98" y="0">s</tspan></text>
            <text transform="translate(640.93 441.03) rotate(-92)" font-size="4.51" fill="#5b5e60" font-family="AcherusGrotesque-Black, Acherus Grotesque"><tspan letter-spacing="0em">Cent</tspan><tspan x="10.58" y="0" letter-spacing="0em">r</tspan><tspan x="12.49" y="0" letter-spacing="0em">o d</tspan><tspan x="19.29" y="0">e</tspan></text>
            <text transform="translate(646.08 437.56) rotate(-92)" font-size="4.51" fill="#5b5e60" font-family="AcherusGrotesque-Black, Acherus Grotesque"><tspan letter-spacing="0em">Diseñ</tspan><tspan x="12.6" y="0">o</tspan></text>
            <text transform="translate(370.54 246.47)" font-size="5.27" fill="#5b5e60" font-family="AcherusGrotesque-Black, Acherus Grotesque" letter-spacing="0em">Plazol<tspan x="15.39" y="0" letter-spacing="0em">e</tspan><tspan x="18.46" y="0">t</tspan><tspan x="20.82" y="0" letter-spacing="0em">a</tspan></text>
            <text transform="translate(367.19 251.74)" font-size="5.27" fill="#5b5e60" font-family="AcherusGrotesque-Black, Acherus Grotesque" letter-spacing="-0.02em">F<tspan x="3.19" y="0" letter-spacing="0em">undado</tspan><tspan x="22.57" y="0" letter-spacing="0em">r</tspan><tspan x="24.79" y="0" letter-spacing="0em">e</tspan><tspan x="27.88" y="0" letter-spacing="0em">s</tspan></text>
          </g>
        </g>
      </g>
    </g>
  </g>
</svg>
