
<svg width="21px" height="25px" viewBox="1292 102 21 25" version="1.1" xmlns="http://www.w3.org/2000/svg" xmlns:xlink="http://www.w3.org/1999/xlink">
    <!-- Generator: Sketch 42 (36781) - http://www.bohemiancoding.com/sketch -->
    <desc>Created with Sketch.</desc>
    <defs>
        <path d="M19.992195,7.69697257 C19.992195,2.56530676 16.2522677,-1.17610107 11.1191213,-1.17610107 C5.9874555,-1.17610107 2.23568366,2.55494275 2.23568366,7.68660856 C2.23568366,12.8182744 9.43357392,20.7795441 10.9541223,20.7795441 C12.4717096,20.7795441 19.992195,12.8286384 19.992195,7.69697257 Z" id="path-1"></path>
        <mask id="mask-2" maskContentUnits="userSpaceOnUse" maskUnits="objectBoundingBox" x="-1" y="-1" width="19.7565113" height="23.9556452">
            <rect x="1.23568366" y="-2.17610107" width="19.7565113" height="23.9556452" fill="white"></rect>
            <use xlink:href="#path-1" fill="black"></use>
        </mask>
    </defs>
    <g id="Group" stroke="none" stroke-width="1" fill="none" fill-rule="evenodd" transform="translate(1302.500000, 114.500000) rotate(-270.000000) translate(-1302.500000, -114.500000) translate(1291.000000, 105.000000)">
        <g id="Page-1-Copy-3" transform="translate(11.113939, 9.801722) rotate(-90.000000) translate(-11.113939, -9.801722) ">
            <use fill="#000000" fill-rule="evenodd" xlink:href="#path-1"></use>
            <use stroke="#FFFFFF" mask="url(#mask-2)" stroke-width="2" xlink:href="#path-1"></use>
        </g>
        <ellipse id="Oval-2" fill="#FFFFFF" cx="7.5" cy="9.5" rx="4.5" ry="4.5"></ellipse>
    </g>
</svg>