<?xml version="1.0" encoding="UTF-8"?>
<svg width="6px" height="11px" viewBox="0 0 6 11" version="1.1" xmlns="http://www.w3.org/2000/svg" xmlns:xlink="http://www.w3.org/1999/xlink">
    <!-- Generator: Sketch 44 (41411) - http://www.bohemiancoding.com/sketch -->
    <title>select</title>
    <desc>Created with Sketch.</desc>
    <defs></defs>
    <g id="13.3.-Formulario-El-Bosque-te-Acoge" stroke="none" stroke-width="1" fill="none" fill-rule="evenodd">
        <g id="13.3.-Formulario-El-Bosque-te-Acoge-zonas" transform="translate(-513.000000, -259.000000)" fill="#979797">
            <g id="select-input-line" transform="translate(330.000000, 256.000000)">
                <g id="select" transform="translate(183.000000, 3.000000)">
                    <polygon id="Arrow" transform="translate(3.000000, 8.474747) scale(-1, 1) rotate(-270.000000) translate(-3.000000, -8.474747) " points="1.93421053 5.47474747 1 6.39285092 3.11842105 8.47474747 1 10.556644 1.93421053 11.4747475 5 8.47474747"></polygon>
                    <polygon id="Arrow-" transform="translate(3.000000, 2.474747) scale(-1, -1) rotate(-270.000000) translate(-3.000000, -2.474747) " points="1.93421053 -0.525252525 1 0.392850923 3.11842105 2.47474747 1 4.55664403 1.93421053 5.47474747 5 2.47474747"></polygon>
                </g>
            </g>
        </g>
    </g>
</svg>