<?xml version="1.0" encoding="UTF-8" standalone="no"?>
<svg width="28px" height="17px" viewBox="0 0 28 17" version="1.1" xmlns="http://www.w3.org/2000/svg" xmlns:xlink="http://www.w3.org/1999/xlink">
    <!-- Generator: Sketch 41.2 (35397) - http://www.bohemiancoding.com/sketch -->
    <title>MenuBurgerIcon</title>
    <desc>Created with Sketch.</desc>
    <defs></defs>
    <g id="Cortes" stroke="none" stroke-width="1" fill="none" fill-rule="evenodd">
        <path d="M26.5,3 L28,3 L28,0 L26.5,0 L1.5,0 L0,0 L0,3 L1.5,3 L26.5,3 Z M26.5,10 L28,10 L28,7 L26.5,7 L1.5,7 L0,7 L0,10 L1.5,10 L26.5,10 Z M26.5,17 L28,17 L28,14 L26.5,14 L1.5,14 L0,14 L0,17 L1.5,17 L26.5,17 Z" id="MenuBurgerIcon" fill="#FFFFFF"></path>
    </g>
</svg>