<svg width="20" height="22" viewBox="0 0 20 22" version="1.1" xmlns="http://www.w3.org/2000/svg" xmlns:xlink="http://www.w3.org/1999/xlink" xmlns:figma="http://www.figma.com/figma/ns">
<title>flechas1</title>
<desc>Created using Figma</desc>
<g id="Canvas" transform="translate(-1564 -1344)" figma:type="canvas">
<g id="flechas1" style="mix-blend-mode:normal;" figma:type="frame">
<g id="Elements/arrow-down-green-basic Copy" style="mix-blend-mode:normal;" figma:type="instance">
<g id="arrow-down-green-basic" style="mix-blend-mode:normal;" figma:type="frame">
<g id="Shape" style="mix-blend-mode:normal;" figma:type="vector">
<use xlink:href="#path0_fill" transform="matrix(1 -1.09379e-16 -1.39107e-16 -1 1565.98 1365.54)" fill="#7BC142" style="mix-blend-mode:normal;"/>
</g>
</g>
</g>
</g>
</g>
<defs>
<path id="path0_fill" fill-rule="evenodd" d="M 4.54212 10.7701L 17.038 1.87753C 17.3248 1.67344 17.3248 1.34254 17.038 1.13853L 15.6534 0.153081C 15.5157 0.0550452 15.3289 0 15.1341 0C 14.9394 0 14.7526 0.0550452 14.6149 0.153081L 0.215084 10.4006C -0.0716947 10.6047 -0.0716947 10.9356 0.215084 11.1396L 14.6148 21.3871C 14.7525 21.4852 14.9393 21.5402 15.134 21.5402C 15.3288 21.5402 15.5156 21.4852 15.6533 21.3871L 17.0379 20.4017C 17.3247 20.1976 17.3247 19.8667 17.0379 19.6627L 4.54212 10.7701L 4.54212 10.7701Z"/>
</defs>
</svg>
