
<svg width="28px" height="62px" viewBox="840 146 28 62" version="1.1" xmlns="http://www.w3.org/2000/svg" xmlns:xlink="http://www.w3.org/1999/xlink">
    <!-- Generator: Sketch 41.2 (35397) - http://www.bohemiancoding.com/sketch -->
    <desc>Created with Sketch.</desc>
    <defs></defs>
    <path d="M839.647959,179.034103 L868.852041,204.139366" id="Line" stroke="#7BC142" stroke-width="1" stroke-linecap="square" fill="none" transform="translate(854.250000, 191.586735) rotate(-90.000000) translate(-854.250000, -191.586735) "></path>
    <path d="M839.647959,175.139366 L868.052402,150.721511" id="Line" stroke="#7BC142" stroke-width="1" stroke-linecap="square" fill="none" transform="translate(854.250000, 162.586735) rotate(-90.000000) translate(-854.250000, -162.586735) "></path>
</svg>