<?xml version="1.0" encoding="utf-8"?>
<!-- Generator: Adobe Illustrator 16.0.4, SVG Export Plug-In . SVG Version: 6.00 Build 0)  -->
<!DOCTYPE svg PUBLIC "-//W3C//DTD SVG 1.1//EN" "http://www.w3.org/Graphics/SVG/1.1/DTD/svg11.dtd">
<svg version="1.1" id="Capa_1" xmlns="http://www.w3.org/2000/svg" xmlns:xlink="http://www.w3.org/1999/xlink" x="0px" y="0px"
	 width="30px" height="30px" viewBox="0 0 30 30" enable-background="new 0 0 30 30" xml:space="preserve">
<title>IconPDF</title>
<desc>Created with Sketch.</desc>
<g id="Capa_1_1_">
	<g>
		<path fill="#7BC142" d="M15.962,10.751c-0.103,0.757-0.218,1.513-0.295,2.272c-0.028,0.253-0.013,0.546,0.09,0.776
			c0.437,1,1.032,1.886,2.003,2.453c0.145,0.08,0.334,0.108,0.508,0.108c0.823,0.006,1.652-0.045,2.471,0.002
			c0.556,0.028,0.807,0.319,0.814,0.758c0.02,0.679-0.25,0.966-0.933,0.937c-0.964-0.041-1.835-0.404-2.69-0.803
			c-0.175-0.08-0.408-0.144-0.589-0.101c-1.196,0.265-2.389,0.552-3.579,0.856c-0.17,0.043-0.338,0.213-0.457,0.361
			c-0.536,0.711-1.017,1.467-1.594,2.141c-0.455,0.537-0.926,0.595-1.42,0.355c-0.382-0.178-0.504-0.412-0.304-0.775
			c0.186-0.332,0.417-0.672,0.711-0.901c0.536-0.425,1.138-0.757,1.705-1.14c0.134-0.088,0.287-0.192,0.356-0.328
			c0.637-1.229,1.267-2.46,1.868-3.708c0.093-0.182,0.081-0.442,0.053-0.657c-0.12-0.947-0.32-1.887-0.382-2.835
			c-0.042-0.707,0.242-0.943,0.844-0.932c0.479,0.008,0.756,0.35,0.786,0.963c0.002,0.065,0.002,0.127,0.002,0.193
			C15.938,10.748,15.95,10.751,15.962,10.751z M16.738,16.59c-0.525-0.631-1.057-1.262-1.567-1.872
			c-0.418,0.855-0.858,1.764-1.298,2.661C14.848,17.107,15.807,16.846,16.738,16.59z M15.243,12.228
			c0.433-0.615,0.389-1.86-0.119-2.295C15.024,10.73,15.042,11.468,15.243,12.228z M21.271,17.291
			c-0.676-0.523-1.371-0.361-2.041-0.351C19.984,17.411,20.688,17.549,21.271,17.291z M10.595,20.295
			c0.063,0.053,0.128,0.106,0.19,0.16c0.474-0.566,0.945-1.14,1.417-1.705c-0.043-0.037-0.087-0.076-0.132-0.113
			C11.579,19.191,11.089,19.739,10.595,20.295z"/>
	</g>
	<g id="puntos_100_">
	</g>
	<g id="puntos_99_">
	</g>
	<g id="puntos">
	</g>
	<g id="puntos_98_">
	</g>
	<g id="puntos_1_">
	</g>
	<g id="puntos_97_">
	</g>
	<g id="puntos_3_">
	</g>
	<g id="puntos_2_">
	</g>
	<g id="puntos_96_">
	</g>
	<g id="puntos_95_">
		<circle fill="#7BC142" cx="15.301" cy="28.223" r="0.602"/>
		<circle fill="#7BC142" cx="18.307" cy="28.223" r="0.602"/>
		<circle fill="#7BC142" cx="21.311" cy="28.223" r="0.602"/>
		<circle fill="#7BC142" cx="9.291" cy="28.223" r="0.602"/>
		<circle fill="#7BC142" cx="12.295" cy="28.223" r="0.602"/>
	</g>
	<g id="puntos_94_">
	</g>
	<g id="puntos_93_">
	</g>
	<g id="puntos_92_">
	</g>
	<g id="puntos_91_">
	</g>
	<g id="puntos_90_">
	</g>
	<g id="puntos_89_">
	</g>
	<g id="puntos_88_">
	</g>
	<g id="puntos_87_">
	</g>
	<g id="puntos_86_">
	</g>
	<g id="puntos_85_">
	</g>
	<g id="puntos_84_">
	</g>
	<g id="puntos_83_">
	</g>
	<g id="puntos_82_">
	</g>
	<g id="puntos_81_">
	</g>
	<g id="puntos_80_">
	</g>
	<g id="puntos_79_">
	</g>
	<g id="puntos_78_">
	</g>
	<g id="puntos_77_">
	</g>
	<g id="puntos_76_">
	</g>
	<g id="puntos_75_">
	</g>
	<g id="puntos_74_">
	</g>
	<g id="puntos_73_">
	</g>
	<g id="puntos_72_">
	</g>
	<g id="puntos_71_">
	</g>
	<g id="puntos_70_">
	</g>
	<g id="puntos_69_">
	</g>
	<g id="puntos_68_">
	</g>
	<g id="puntos_67_">
	</g>
	<g id="puntos_66_">
	</g>
	<g id="puntos_65_">
	</g>
	<g id="puntos_64_">
	</g>
	<g id="puntos_63_">
	</g>
	<g id="puntos_62_">
	</g>
	<g id="puntos_61_">
	</g>
	<g id="puntos_60_">
	</g>
	<g id="puntos_59_">
	</g>
	<g id="puntos_58_">
	</g>
	<g id="puntos_57_">
	</g>
	<g id="puntos_56_">
	</g>
	<g id="puntos_55_">
	</g>
	<g id="puntos_54_">
	</g>
	<g id="puntos_53_">
	</g>
	<g id="puntos_52_">
	</g>
	<g id="puntos_51_">
	</g>
	<g id="puntos_50_">
	</g>
	<g id="puntos_49_">
	</g>
	<g id="puntos_48_">
	</g>
	<g id="puntos_47_">
	</g>
	<g id="puntos_46_">
	</g>
	<g id="puntos_45_">
	</g>
	<g id="puntos_44_">
	</g>
	<g id="puntos_43_">
	</g>
	<g id="puntos_42_">
	</g>
	<g id="puntos_41_">
	</g>
	<g id="puntos_40_">
	</g>
	<g id="puntos_39_">
	</g>
	<g id="puntos_38_">
	</g>
	<g id="puntos_37_">
	</g>
	<g id="puntos_36_">
	</g>
	<g id="puntos_35_">
	</g>
	<g id="puntos_34_">
	</g>
	<g id="puntos_33_">
	</g>
	<g id="puntos_32_">
	</g>
	<g id="puntos_31_">
	</g>
	<g id="puntos_30_">
	</g>
	<g id="puntos_29_">
	</g>
	<g id="puntos_28_">
	</g>
	<g id="puntos_27_">
	</g>
	<g id="puntos_26_">
	</g>
	<g id="puntos_25_">
	</g>
	<g id="puntos_24_">
	</g>
	<g id="puntos_23_">
	</g>
	<g id="puntos_22_">
	</g>
	<g id="puntos_21_">
	</g>
	<g id="puntos_20_">
	</g>
	<g id="puntos_19_">
	</g>
	<g id="puntos_18_">
	</g>
	<g id="puntos_17_">
	</g>
	<g id="puntos_16_">
	</g>
	<g id="puntos_15_">
	</g>
	<g id="puntos_14_">
	</g>
	<g id="puntos_13_">
	</g>
	<g id="puntos_12_">
	</g>
	<g id="puntos_11_">
	</g>
	<g id="puntos_10_">
	</g>
	<g id="puntos_9_">
	</g>
	<g id="puntos_8_">
	</g>
	<g>
		<path fill="#7BC142" d="M23.715,25.219H6.285c-0.333,0-0.601-0.27-0.601-0.604V1.776c0-0.331,0.269-0.6,0.601-0.6h12.621
			c0.332,0,0.603,0.27,0.603,0.6v4.809h4.206c0.332,0,0.602,0.27,0.602,0.601v17.429C24.316,24.949,24.047,25.219,23.715,25.219z
			 M6.886,24.014h16.229V7.788h-4.208c-0.332,0-0.601-0.27-0.601-0.603V2.377H6.886V24.014z"/>
	</g>
	<g>
		<path fill="#7BC142" d="M23.715,7.788c-0.166,0-0.33-0.068-0.449-0.202l-4.808-5.409c-0.222-0.248-0.199-0.628,0.049-0.849
			c0.249-0.22,0.628-0.199,0.849,0.05l4.811,5.41c0.219,0.248,0.195,0.627-0.051,0.848C24.001,7.737,23.857,7.788,23.715,7.788z"/>
	</g>
	<g id="puntos_7_">
	</g>
	<g id="puntos_6_">
	</g>
	<g id="puntos_5_">
	</g>
	<g id="puntos_4_">
	</g>
</g>
</svg>
